{
  "cviceni": {
    "version": {
      "global": "<%= version %>",
      "content": 2
    },
    "katalog": [
      "public",
      "test"
    ],
    "language": "cs",
    "slug": "proc-vystavovali-obraz-t-g-masaryka",
    "nazev": "Proč vystavovali obraz T. G. Masaryka?",
    "autor": [
      "Kamil Činátl",
      "Čeněk Pýcha"
    ],
    "klicovaSlova": {
      "rvp": [
        "Československo 60. léta"
      ],
      "koncept": [
        "symboly",
        "vzpomínková kultura"
      ],
      "b4": [
        "dobové perspektivy"
      ],
      "historylab": [
        "hledáme klíčové detaily"
      ]
    },
    "casovaOsa": {
      "roky": [
        1930,
        1968
      ],
      "epochy": [
        {
          "nazev": "ceska",
          "obdobi": [
            "první Československá republika",
            "pokus o reformu komunismu"
          ]
        },
        {
          "nazev": "svetova",
          "obdobi": [
            ""
          ]
        }
      ]
    },
    "anotace": {
      "ucitel": "Cvičení rozvíjí dovednost analyzovat obrazy. Žáci detailně popisují portrét prezidenta Masaryka, přičemž zohledňují příběh obrazu. Následně zkoumají zápis z lánské obecní kroniky o vystavování obrazu v roce 1968, aby osvětlili symbolické významy, s nimiž mohla být osoba T. G. M. a funkce prezidenta spojována. Žáci se zamýšlejí nad tím, jak mohla obraz vnímat veřejnost v roce 1968.",
      "verejna": "Obraz T. G. Masaryka v roce 1968 přitáhl do Lán statisíce lidí. Nechte se i vy pozvat do kulturního domu. Obdivujte obraz, zjistěte něco o jeho historii a odhalte jeho symbolické významy."
    },
    "trvani": 25,
    "obtiznost": "střední",
    "funkce": [
      "lupa",
      "cteni",
      "text",
      "svg",
      "kresleni",
      "text-editor"
    ],
    "pdf": {
      "doporucenyPostup": "proc-vystavovali-obraz-t-g-masaryka.pdf"
    },
    "uvodniObrazek": "proc-vystavovali-obraz-t-g-masaryka/pic-00-1024h.jpg",
    "id": 27
  },
  "slajd": [
    {
      "zadani": {
        "hlavni": "Prohlédněte si obraz.",
        "rozsirujici": ""
      },
      "napoveda": {
        "aktivity": [
          "lupa"
        ],
        "text": "Při kliknutí levým tlačítkem do obrazu lupa přiblíží část obrazu ve výřezu."
      },
      "prameny": [
        "proc-vystavovali-obraz-t-g-masaryka/pic-00-1024h.jpg"
      ],
      "popisky": [
        "František Horník: Jezdecký portrét T. G. M., 1930. Zdroj: Muzeum T. G. Masaryka v Lánech"
      ]
    },
    {
      "zadani": {
        "hlavni": "Označte důležité prvky obrazu a popište zobrazení prezidenta.",
        "rozsirujici": ""
      },
      "napoveda": {
        "aktivity": [
          "svg"
        ],
        "text": "Kliknutím na obraz levým tlačítkem myši označujete bod. Nakliknutím na bod pravým tlačítkem otevřete menu s nabídkou úkonů: změnit barvu bodu, (T) doplnit textový komentář, (X) smazat nakliknutý objekt."
      },
      "svg": {
        "soubory": [
          {
            "id": "svg-1",
            "soubor": "proc-vystavovali-obraz-t-g-masaryka/pic-00-1024h.jpg",
            "funkce": [
              "text",
              "znacky"
            ]
          }
        ]
      },
      "popisky": [
        "Monumentální obraz o rozměrech 250x300 cm vznikal v letech 1927 až 1930. Zachycuje prezidenta Masaryka a jeho koně Hektora. Po dokončení byl vystavován v Praze a dalších městech ČSR. Reprodukoval a rozšířil se jako populární pohlednice. Za války bylo plátno ukryto pod zemí v kovovém pouzdru. Po osvobození se s velkým ohlasem vystavovalo v sokolovně v Lánech. V roce 1950 zakázala vystavování Státní bezpečnost. Znovu se obraz dostal na veřejnost až v roce 1968 v kulturním domě v Lánech. V roce 1970 byl z obavy před zabavením odeslán krajanským spolkům do USA. Nyní je v držení Czechoslovak Heritage Museum v Oak Brook. František Horník: Jezdecký portrét T. G. M., 1930. Zdroj: Muzeum T. G. Masaryka v Lánech"
      ]
    },
    {
      "class": "half-slide-previous",
      "zadani": {
        "hlavni": "Přečtěte si text.",
        "rozsirujici": "Označte pasáže, které se týkají obrazu."
      },
      "napoveda": {
        "aktivity": [
          "lupa",
          "cteni"
        ],
        "text": "Při kliknutí levým tlačítkem do obrazu lupa přiblíží část obrazu ve výřezu."
      },
      "textovyEditor": {
        "galerie": [
          {
            "soubor": "proc-vystavovali-obraz-t-g-masaryka/pic-01-1024h.jpg"
          }
        ],
        "texty": [
          {
            "id": 0,
            "text": "text-00",
            "funkce": "zvyraznovani",
            "menu": [
              {
                "title": "Označit pasáž.",
                "commandName": "tgm-obraz",
                "color": "red"
              }
            ]
          }
        ]
      },
      "popisky": [
        "Obecní kronika Lány 1958–1969, zápis Výstava T. G. M. z roku 1968. Zdroj: Muzeum T. G. Masaryka v Lánech"
      ]
    },
    {
      "class": [
        "half-slide-active"
      ],
      "zadani": {
        "hlavni": "Proč vystavovali obraz T.&thinsp;G. Masaryka?",
        "rozsirujici": ""
      },
      "napoveda": {
        "aktivity": [
          "text"
        ],
        "text": "Do boxu pro text zapisujete odpověď na otázku, nebo jiný komentář (dle zadání)."
      },
      "uzivatelskyText": {
        "otazky": [
          {
            "id": "text-1",
            "zadani": "Jaké vlastnosti prezidenta obraz zdůrazňuje?",
            "instrukce": "Myslím si, že…",
            "minDelka": 10,
            "maxDelka": 400
          },
          {
            "id": "text-2",
            "zadani": "Čím mohl oslovit veřejnost v roce 1968?",
            "instrukce": "Myslím si, že…",
            "minDelka": 10,
            "maxDelka": 400
          }
        ]
      }
    }
  ]
}